{
  "type": "service_account",
  "project_id": "walkingp-6eaf3",
  "private_key_id": "5d7379d2e24dfe70274f4ab098126ef961c3d353",
  "private_key": "-----BEGIN PRIVATE KEY-----\nMIIEvwIBADANBgkqhkiG9w0BAQEFAASCBKkwggSlAgEAAoIBAQDcd13mzlEbkJw2\nDgu3vLtfQ0aTLNeGF003PSNL3fPkC5amwtsYkRU33RJY04at06pDs1OBdKC5oGFk\nWtqgAF0aG6bAu06e7MMmQYEAR0B7bc2O26QvCQRMyxclIbEmROMlWNOvNi8YCU5f\nBlRbqVZ6V0MMZvdTIf491bWtRoZIftI36HhbONxq32gNmDPTNMt8tqjn7Yx+9NOP\nZGAzo0YZS2l65QIQ/nDUy49CZzT8gyBc/RhfxTVVhLS/CivxDDSazNow3VMGrYMC\nH0XXIhCkLlqzF1Hs2OjpRmskezbjTLxA407WxEXq8+/2+mxNy+Zn03Z2nYfzHAd/\nO+7wMCPbAgMBAAECggEAG9sHJcjurY1td1T5/QqfIA+3hJP3XU1nZ7HVWloeXTNr\nowFevnFiXW8UyN1dGGx0iF5JkENEpX+SnqPuGKZDHS/eN17TNbhThetj2b2m85Fx\nlfnBemHoxa0pbPsfT2cHzim1gV9WvvI6ET6S/QvdzdJludTurfXPElAExvJwuAr2\nCfa4p+ZrdYw/u8CzztAyvXDsHrXJND0Q5x3JWDhcZjP3ekrdv3WS3dXXkyCE3Zxx\no9lAGiqu0jQ0zOax/r9GLMvty5Mza1zSTJ4y4/zR7bLZydwBv6bkpd+MFhCEASZn\n1iJvV5GeKPu/vAYVicoGoogu9rZYFBdrlYP4pzlnOQKBgQDwUflg18heRudiH2Oj\ndUvMUBZyxMVJwo3VUyCx+J56hrUfjlOOBQfMqU/mE82HUNVNcR2RmxneXheDX3IN\nncUpBEGPs2Hd4SumXPeZTqCDqPjIlGNka4/9NA3KFnp0ipAambDPQ+oLc8Cbn15I\nUeyaERpp5Zcj2oPLBVx0m6AN8wKBgQDq2caicjt54/tSjkZimF9DqhfqlwiLI/Zs\nbgx7NBZSJeP5oJDlRDxwhwjLk7lCY1dn6XsFH+DPL9jvXUqFwa+LNQgkdp54XBzq\nhz5plC+QZZ0QAOAOmH+WH8hb4G37uLvb5cs1a+ZHTt+WM0oKiz5GRwXr/+03ZL2n\nlijOLxdEeQKBgQCTgo2i7vBzRexS41eChsX+5A3TZop+qufqUDsaYrPMG5FjjDYn\nT1kpO6fqXq9iZrB2936h2GU5g+HE5roYN4ZElfM0JHRnAAaN+DSWqpeGGRqT69lS\nU1+vmNr593A0xrSLT1ki79niK6vHGjyCAZ9MNkFTTPTHsiIBZQoKHVhSFwKBgQCp\nvvh0Z86XXnJEDHPRRcLtfF7G/518PGUboDtDPbW4cIyj3Ct+muB4kRGJW1+3HWiK\nwdZaMN1jw3iwIiUAIquIGa+l81q9Mg7wcQpqc2Iho2BvtcI8qnrlfllqFwBHxhF6\nclB7b17FQbwXq0Cj+Frtnt4n4xaJSDZQkBc0WBMgOQKBgQCw2YdgviLyLZDdvknY\nqQBbP7WcV5ohgMp1xIDiDhX1sQCj7CTdp/9GXkUc9Icam4RPcdV6C/uYLv4zKUjC\nrI+DK8j4V1Hg/XHxGlHAsKpIiq/w4EbyMzf1hbAcrijh9RXyROegHg6y3M9Yy97e\nT0NN+wCdL1+HQySup3b/VpoyUQ==\n-----END PRIVATE KEY-----\n",
  "client_email": "firebase-adminsdk-9qfy7@walkingp-6eaf3.iam.gserviceaccount.com",
  "client_id": "102296727566312877241",
  "auth_uri": "https://accounts.google.com/o/oauth2/auth",
  "token_uri": "https://oauth2.googleapis.com/token",
  "auth_provider_x509_cert_url": "https://www.googleapis.com/oauth2/v1/certs",
  "client_x509_cert_url": "https://www.googleapis.com/robot/v1/metadata/x509/firebase-adminsdk-9qfy7%40walkingp-6eaf3.iam.gserviceaccount.com",
  "universe_domain": "googleapis.com"
}
